{
  "project_info": {
    "project_number": "618666317128",
    "firebase_url": "https://android-apps-a2377.firebaseio.com",
    "project_id": "android-apps-a2377",
    "storage_bucket": "android-apps-a2377.appspot.com"
  },
  "client": [
    {
      "client_info": {
        "mobilesdk_app_id": "1:618666317128:android:ca6e8b28edc92a26",
        "android_client_info": {
          "package_name": "com.cs.samkracustomer"
        }
      },
      "oauth_client": [
        {
          "client_id": "618666317128-hje359rjc5b9ojujrue1h9vhve09boav.apps.googleusercontent.com",
          "client_type": 3
        }
      ],
      "api_key": [
        {
          "current_key": "AIzaSyAJArQiQWWQfrH5k9qbdwkjLqd5pAg6EY8"
        }
      ],
      "services": {
        "analytics_service": {
          "status": 1
        },
        "appinvite_service": {
          "status": 1,
          "other_platform_oauth_client": []
        },
        "ads_service": {
          "status": 2
        }
      }
    }
  ],
  "configuration_version": "1"
}